{
  "data": {
    "username": "kszyr.vercobrador@appetiser.com.au",
    "token": "66643",
    "expires_at": "2020-05-28T03:04:12.000000Z",
    "created_at": "2020-05-28T02:04:12.000000Z"
  },
  "http_status": 200,
  "success": true
}
